{
  "data": [
    {
      "_id": "593783dc5ee35676febbbf98",
      "name": "Lords of Waterdeep",
      "slug": "lords-of-waterdeep",
      "player_min": 2,
      "player_max": 5,
      "player_best": 3,
      "min_duration": 60,
      "max_duration": 120,
      "updated_at": "2018-04-23T04:12:10.556Z",
      "created_at": "2018-04-23T04:12:10.556Z",
      "owned_by": [
        "593a2c245ee35676febbbf9e"
      ],
      "media": {
        "downloads": [],
        "videos": [],
        "images": []
      },
      "mechanics": [],
      "player_interaction": [
        "competitive"
      ],
      "expansions": [
        "593783e95ee35676febbbf99"
      ],
      "categories": []
    },
    {
      "_id": "5939de465ee35676febbbf9c",
      "name": "Wulfsburg",
      "slug": "zombicide-black-plague-wulfsburg",
      "is_expansion": true,
      "player_min": 1,
      "player_max": 6,
      "player_best": 3,
      "parent_game": "5939dbfa5ee35676febbbf9b",
      "min_duration": 30,
      "max_duration": 240,
      "weight": 2,
      "updated_at": "2018-04-23T04:12:10.554Z",
      "created_at": "2018-04-23T04:12:10.554Z",
      "owned_by": [
        "593a2c245ee35676febbbf9e"
      ],
      "media": {
        "downloads": [],
        "videos": [],
        "images": []
      },
      "mechanics": [],
      "player_interaction": [
        "coop"
      ],
      "expansions": [],
      "categories": []
    },
    {
      "_id": "5939de4d5ee35676febbbf9d",
      "name": "Raiders of the North Sea",
      "slug": "raiders-of-the-north-sea",
      "player_min": 2,
      "player_max": 4,
      "player_best": 3,
      "min_duration": 45,
      "max_duration": 120,
      "weight": 3,
      "updated_at": "2018-04-23T04:12:10.555Z",
      "created_at": "2018-04-23T04:12:10.555Z",
      "owned_by": [
        "593a2c465ee35676febbbfa1"
      ],
      "media": {
        "downloads": [],
        "videos": [],
        "images": []
      },
      "mechanics": [],
      "player_interaction": [
        "competitive"
      ],
      "expansions": [],
      "categories": []
    },
    {
      "_id": "5939dbfa5ee35676febbbf9b",
      "name": "Zombicide Black Plague",
      "slug": "zombicide-black-plague",
      "player_min": 1,
      "player_max": 6,
      "player_best": 3,
      "min_duration": 30,
      "max_duration": 240,
      "weight": 2,
      "primary_mechanic": "dice_rolling",
      "updated_at": "2018-04-23T04:12:10.552Z",
      "created_at": "2018-04-23T04:12:10.552Z",
      "owned_by": [
        "593a2c245ee35676febbbf9e"
      ],
      "media": {
        "downloads": [],
        "videos": [],
        "images": []
      },
      "mechanics": [
        "dice_rolling",
        "modular_board",
        "variable_player_powers"
      ],
      "player_interaction": [
        "coop"
      ],
      "expansions": [
        "5939de465ee35676febbbf9c"
      ],
      "categories": []
    },
    {
      "_id": "593783e95ee35676febbbf99",
      "name": "Scoundrels of Skullport",
      "slug": "scoundrels-of-skullport",
      "is_expansion": true,
      "parent_game": "593783dc5ee35676febbbf98",
      "player_min": 2,
      "player_max": 6,
      "player_best": 4,
      "min_duration": 60,
      "max_duration": 60,
      "updated_at": "2018-04-23T04:12:10.557Z",
      "created_at": "2018-04-23T04:12:10.557Z",
      "owned_by": [
        "593a2c245ee35676febbbf9e"
      ],
      "media": {
        "downloads": [],
        "videos": [],
        "images": []
      },
      "mechanics": [],
      "player_interaction": [
        "competitive"
      ],
      "expansions": [],
      "categories": []
    },
    {
      "_id": "593784f55ee35676febbbf9a",
      "name": "Evolution",
      "slug": "evolution",
      "player_min": 2,
      "player_max": 6,
      "player_best": 4,
      "is_archived": true,
      "min_duration": 50,
      "max_duration": 70,
      "primary_mechanic": "hand_management",
      "updated_at": "2018-04-23T04:12:10.558Z",
      "created_at": "2018-04-23T04:12:10.558Z",
      "owned_by": [
        "593a2c245ee35676febbbf9e",
        "593a2c465ee35676febbbfa1"
      ],
      "media": {
        "downloads": [],
        "videos": [],
        "images": []
      },
      "mechanics": [
        "hand_management",
        "simultaneous_action_selection",
        "take_that"
      ],
      "player_interaction": [
        "competitive"
      ],
      "expansions": [],
      "categories": []
    },
    {
      "_id": "5add5d1a8420ca21a03f4c7f",
      "name": "Solutions Practical",
      "slug": "solutions-practical",
      "player_min": 4,
      "player_max": 3,
      "min_duration": 41,
      "max_duration": 60,
      "weight": 1,
      "updated_at": "2018-04-23T04:12:10.560Z",
      "created_at": "2018-04-23T04:12:10.560Z",
      "owned_by": [],
      "media": {
        "downloads": [],
        "videos": [],
        "images": []
      },
      "mechanics": [],
      "player_interaction": [],
      "expansions": [],
      "categories": []
    },
    {
      "_id": "5add5d1a8420ca21a03f4c7e",
      "name": "ubiquitous enable",
      "slug": "ubiquitous-enable",
      "player_min": 5,
      "player_max": 3,
      "min_duration": 60,
      "max_duration": 165,
      "weight": 5,
      "updated_at": "2018-04-23T04:12:10.560Z",
      "created_at": "2018-04-23T04:12:10.560Z",
      "owned_by": [],
      "media": {
        "downloads": [],
        "videos": [],
        "images": []
      },
      "mechanics": [],
      "player_interaction": [],
      "expansions": [],
      "categories": []
    },
    {
      "_id": "5add5d1a8420ca21a03f4c7d",
      "name": "Pike",
      "slug": "pike",
      "player_min": 3,
      "player_max": 5,
      "min_duration": 42,
      "max_duration": 143,
      "weight": 3,
      "updated_at": "2018-04-23T04:12:10.559Z",
      "created_at": "2018-04-23T04:12:10.559Z",
      "owned_by": [],
      "media": {
        "downloads": [],
        "videos": [],
        "images": []
      },
      "mechanics": [],
      "player_interaction": [],
      "expansions": [],
      "categories": []
    },
    {
      "_id": "5add5d1a8420ca21a03f4c83",
      "name": "input",
      "slug": "input",
      "player_min": 4,
      "player_max": 5,
      "min_duration": 24,
      "max_duration": 52,
      "weight": 4,
      "updated_at": "2018-04-23T04:12:10.563Z",
      "created_at": "2018-04-23T04:12:10.563Z",
      "owned_by": [],
      "media": {
        "downloads": [],
        "videos": [],
        "images": []
      },
      "mechanics": [],
      "player_interaction": [],
      "expansions": [],
      "categories": []
    },
    {
      "_id": "5add5d1a8420ca21a03f4c84",
      "name": "Small Granite Car",
      "slug": "small-granite-car",
      "player_min": 4,
      "player_max": 2,
      "min_duration": 51,
      "max_duration": 163,
      "weight": 5,
      "updated_at": "2018-04-23T04:12:10.564Z",
      "created_at": "2018-04-23T04:12:10.564Z",
      "owned_by": [],
      "media": {
        "downloads": [],
        "videos": [],
        "images": []
      },
      "mechanics": [],
      "player_interaction": [],
      "expansions": [],
      "categories": []
    },
    {
      "_id": "5add5d1a8420ca21a03f4c80",
      "name": "generate Buckinghamshire",
      "slug": "generate-buckinghamshire",
      "player_min": 5,
      "player_max": 2,
      "min_duration": 10,
      "max_duration": 74,
      "weight": 4,
      "updated_at": "2018-04-23T04:12:10.561Z",
      "created_at": "2018-04-23T04:12:10.561Z",
      "owned_by": [],
      "media": {
        "downloads": [],
        "videos": [],
        "images": []
      },
      "mechanics": [],
      "player_interaction": [],
      "expansions": [],
      "categories": []
    },
    {
      "_id": "5add5d1a8420ca21a03f4c85",
      "name": "Implemented Investment Account Barbados",
      "slug": "implemented-investment-account-barbados",
      "player_min": 4,
      "player_max": 2,
      "min_duration": 56,
      "max_duration": 53,
      "weight": 1,
      "updated_at": "2018-04-23T04:12:10.565Z",
      "created_at": "2018-04-23T04:12:10.565Z",
      "owned_by": [],
      "media": {
        "downloads": [],
        "videos": [],
        "images": []
      },
      "mechanics": [],
      "player_interaction": [],
      "expansions": [],
      "categories": []
    },
    {
      "_id": "5add5d1a8420ca21a03f4c82",
      "name": "Reactive",
      "slug": "reactive",
      "player_min": 5,
      "player_max": 2,
      "min_duration": 60,
      "max_duration": 58,
      "weight": 3,
      "updated_at": "2018-04-23T04:12:10.562Z",
      "created_at": "2018-04-23T04:12:10.562Z",
      "owned_by": [],
      "media": {
        "downloads": [],
        "videos": [],
        "images": []
      },
      "mechanics": [],
      "player_interaction": [],
      "expansions": [],
      "categories": []
    },
    {
      "_id": "5add5d1a8420ca21a03f4c88",
      "name": "Rustic Soft Shoes Turks and Caicos Islands Industrial",
      "slug": "rustic-soft-shoes-turks-and-caicos-islands-industrial",
      "player_min": 4,
      "player_max": 3,
      "min_duration": 31,
      "max_duration": 200,
      "weight": 5,
      "updated_at": "2018-04-23T04:12:10.569Z",
      "created_at": "2018-04-23T04:12:10.569Z",
      "owned_by": [],
      "media": {
        "downloads": [],
        "videos": [],
        "images": []
      },
      "mechanics": [],
      "player_interaction": [],
      "expansions": [],
      "categories": []
    },
    {
      "_id": "5add5d1a8420ca21a03f4c89",
      "name": "Tactics wireless",
      "slug": "tactics-wireless",
      "player_min": 4,
      "player_max": 4,
      "min_duration": 14,
      "max_duration": 152,
      "weight": 2,
      "updated_at": "2018-04-23T04:12:10.569Z",
      "created_at": "2018-04-23T04:12:10.569Z",
      "owned_by": [],
      "media": {
        "downloads": [],
        "videos": [],
        "images": []
      },
      "mechanics": [],
      "player_interaction": [],
      "expansions": [],
      "categories": []
    },
    {
      "_id": "5add5d1a8420ca21a03f4c8a",
      "name": "Georgia hacking synthesize",
      "slug": "georgia-hacking-synthesize",
      "player_min": 3,
      "player_max": 3,
      "min_duration": 15,
      "max_duration": 207,
      "weight": 2,
      "updated_at": "2018-04-23T04:12:10.570Z",
      "created_at": "2018-04-23T04:12:10.570Z",
      "owned_by": [],
      "media": {
        "downloads": [],
        "videos": [],
        "images": []
      },
      "mechanics": [],
      "player_interaction": [],
      "expansions": [],
      "categories": []
    },
    {
      "_id": "5add5d1a8420ca21a03f4c87",
      "name": "generate frictionless JBOD",
      "slug": "generate-frictionless-jbod",
      "player_min": 5,
      "player_max": 4,
      "min_duration": 50,
      "max_duration": 179,
      "weight": 3,
      "updated_at": "2018-04-23T04:12:10.567Z",
      "created_at": "2018-04-23T04:12:10.567Z",
      "owned_by": [],
      "media": {
        "downloads": [],
        "videos": [],
        "images": []
      },
      "mechanics": [],
      "player_interaction": [],
      "expansions": [],
      "categories": []
    },
    {
      "_id": "5add5d1a8420ca21a03f4c8c",
      "name": "Nebraska matrix",
      "slug": "nebraska-matrix",
      "player_min": 2,
      "player_max": 3,
      "min_duration": 54,
      "max_duration": 54,
      "weight": 3,
      "updated_at": "2018-04-23T04:12:10.571Z",
      "created_at": "2018-04-23T04:12:10.571Z",
      "owned_by": [],
      "media": {
        "downloads": [],
        "videos": [],
        "images": []
      },
      "mechanics": [],
      "player_interaction": [],
      "expansions": [],
      "categories": []
    },
    {
      "_id": "5add5d1a8420ca21a03f4c8d",
      "name": "Avon Baby withdrawal",
      "slug": "avon-baby-withdrawal",
      "player_min": 4,
      "player_max": 5,
      "min_duration": 26,
      "max_duration": 173,
      "weight": 1,
      "updated_at": "2018-04-23T04:12:10.572Z",
      "created_at": "2018-04-23T04:12:10.572Z",
      "owned_by": [],
      "media": {
        "downloads": [],
        "videos": [],
        "images": []
      },
      "mechanics": [],
      "player_interaction": [],
      "expansions": [],
      "categories": []
    }
  ],
  "meta": {
    "limit": 20,
    "skip": 0,
    "total": 75
  }
}